…
count(ram$stock) %>% arrange(n) 
```

    ## # A tibble: 1 x 1
    ##       n
    ##   <int>
    ## 1  1372

``` r
ram$timeseries %>% count(tsid) %>% arrange(tsid)
```

    ## # A tibble: 259 x 2
    ##    tsid                            n
    ##    <chr>                       <int>
    ##  1 AQ-MT                          68
    ##  2 BdivBmgtpref-dimensionless  41253
    ##  3 BdivBmgttouse-dimensionless 21323
    ##  4 BdivBmsypref-dimensionless  41253
    ##  5 BdivBmsytouse-dimensionless 25697
    ##  6 Cadvised-MT                   452
    ##  7 CdivMSY-ratio               20024
    ##  8 Cpair-E00                     106
    ##  9 Cpair-MT                     4564
    ## 10 CPUE-1-E00/tow                 20
    ## # … with 249 more rows

``` r
ram$tsmetrics %>% filter(tscategory == "CATCH or LANDINGS") %>% distinct() 
```

    ## # A tibble: 57 x 6
    ##    tscategory   tsshort  tslong           tsunitsshort tsunitslong tsunique
    ##    <chr>        <chr>    <chr>            <chr>        <chr>       <chr>   
    ##  1 CATCH or LA… Cadvised Scientific advi… MT           Metric tons Cadvise…
    ##  2 CATCH or LA… CdivMSY  Catch divided b… ratio        ratio       CdivMSY…
    ##  3 CATCH or LA… Cpair    Catch or landin… E00          Individuals Cpair-E…
    ##  4 CATCH or LA… Cpair    Catch or landin… MT           Metric tons Cpair-MT
    ##  5 CATCH or LA… CUSTC    Customary catch  MT           Metric tons CUSTC-MT
    ##  6 CATCH or LA… ILLC     Illegal catch    MT           Metric tons ILLC-MT 
    ##  7 CATCH or LA… RecC     Recreational ca… E00          Individuals RecC-E00
    ##  8 CATCH or LA… RecC     Recreational ca… MT           Metric tons RecC-MT 
    ##  9 CATCH or LA… TAC-A1   Total allowable… MT           Metric tons TAC-A1-…
    ## 10 CATCH or LA… TAC-A2   Total allowable… MT           Metric tons TAC-A2-…
    ## # … with 47 more rows

``` r
#ram$tsmetrics %>% select(tsunique) %>% distinct() %>% arrange()
#ram$timeseries %>% select(tsid) %>% distinct() %>% arrange()

#we want year and fish landings in tons in order to get the right graphs

ram$tsmetrics %>% filter(tscategory == "CATCH or LANDINGS") #%>% count(tslong)
```

    ## # A tibble: 57 x 6
    ##    tscategory   tsshort  tslong           tsunitsshort tsunitslong tsunique
    ##    <chr>        <chr>    <chr>            <chr>        <chr>       <chr>   
    ##  1 CATCH or LA… Cadvised Scientific advi… MT           Metric tons Cadvise…
    ##  2 CATCH or LA… CdivMSY  Catch divided b… ratio        ratio       CdivMSY…
    ##  3 CATCH or LA… Cpair    Catch or landin… E00          Individuals Cpair-E…
    ##  4 CATCH or LA… Cpair    Catch or landin… MT           Metric tons Cpair-MT
    ##  5 CATCH or LA… CUSTC    Customary catch  MT           Metric tons CUSTC-MT
    ##  6 CATCH or LA… ILLC     Illegal catch    MT           Metric tons ILLC-MT 
    ##  7 CATCH or LA… RecC     Recreational ca… E00          Individuals RecC-E00
    ##  8 CATCH or LA… RecC     Recreational ca… MT           Metric tons RecC-MT 
    ##  9 CATCH or LA… TAC-A1   Total allowable… MT           Metric tons TAC-A1-…
    ## 10 CATCH or LA… TAC-A2   Total allowable… MT           Metric tons TAC-A2-…
    ## # … with 47 more rows

``` r
#ram$timeseries_values_views %>% 
  #filter(tsn == "164712")

  ram$area
```

    ## # A tibble: 821 x 6
    ##    country  areatype areacode areaname          alternateareana… areaid    
    ##    <chr>    <chr>    <chr>    <chr>             <chr>            <chr>     
    ##  1 Argenti… CFP      ARG-N    Northern Argenti… NA               Argentina…
    ##  2 Argenti… CFP      ARG-S    Southern Argenti… NA               Argentina…
    ##  3 Austral… AFMA     CASCADE  Cascade Plateau   NA               Australia…
    ##  4 Austral… AFMA     EAUS     Eastern Australia NA               Australia…
    ##  5 Austral… AFMA     ESE      Eastern half of … NA               Australia…
    ##  6 Austral… AFMA     GAB      Great Australian… NA               Australia…
    ##  7 Austral… AFMA     MI       Macquarie Island  <NA>             Australia…
    ##  8 Austral… AFMA     NAUST    Northern Austral… NA               Australia…
    ##  9 Austral… AFMA     NSWWA    New South Wales … NA               Australia…
    ## 10 Austral… AFMA     SE       Southeast Austra… NA               Australia…
    ## # … with 811 more rows
…
collapsed_fish <-
  fish %>% filter(collapsed == TRUE) %>%
    summarize(total = n())  

total_fish <- 
  fish %>% summarise(total_count = n())

fish_plot <-
  left_join(collapsed_fish, total_fish) %>%
  mutate(percent = total/ total_count * 100)
  
fish_plot
```

    ## # A tibble: 114 x 4
    ##    tsyear total total_count percent
    ##     <dbl> <int>       <int>   <dbl>
    ##  1   1896     2           9   22.2 
    ##  2   1897     2           9   22.2 
    ##  3   1898     2           9   22.2 
    ##  4   1899     3          10   30   
    ##  5   1900     3          14   21.4 
    ##  6   1901     1          15    6.67
    ##  7   1902     1          15    6.67
    ##  8   1904     1          15    6.67
    ##  9   1907     2          17   11.8 
    ## 10   1908     1          17    5.88
    ## # … with 104 more rows
…
